---
http_interactions:
- request:
    method: get
    uri: https://gateway.t3.nomis-api.hmpps.dsd.io/custodyapi/api/offenders/prison/LEI?page=0&size=10
    body:
      encoding: US-ASCII
      string: ''
    headers:
      User-Agent:
      - Faraday v0.15.4
      Authorization:
      - authorisation_header
      Accept-Encoding:
      - gzip;q=1.0,deflate;q=0.6,identity;q=0.3
      Accept:
      - "*/*"
  response:
    status:
      code: 200
      message: OK
    headers:
      Cache-Control:
      - no-cache, no-store, max-age=0, must-revalidate
      Pragma:
      - no-cache
      Transfer-Encoding:
      - chunked
      Content-Type:
      - application/hal+json;charset=UTF-8
      Expires:
      - '0'
      X-Content-Type-Options:
      - nosniff
      X-Xss-Protection:
      - 1; mode=block
      Strict-Transport-Security:
      - max-age=31536000 ; includeSubDomains
      Date:
      - Wed, 09 Jan 2019 12:22:19 GMT
    body:
      encoding: UTF-8
      string: '{"_embedded":{"offenders":[{"nomsId":"G4273GI","offenderId":1284739,"firstName":"OZULLIRN","middleNames":"TESSE","surname":"ABBELLA","dateOfBirth":"1980-08-15","activeBooking":{"bookingId":1153753,"bookingNo":"04581A","offenderId":1284739,"rootOffenderId":1284739,"agencyLocation":{"agencyLocationId":"LEI","description":"LEEDS
        (HMP)","longDescription":"HMP LEEDS","agencyLocationType":"INST","districtCode":"YORK","bailOffice":false,"housingLev1Code":"WING","housingLev2Code":"LAND","housingLev3Code":"CELL","housingLev4Code":"NULL","serviceRequired":false,"active":true,"areaCode":"YORK","nomsRegionCode":"YOHUM","geographicRegionCode":"YORK","cjitCode":"E00LE00"},"livingUnit":{"internalLocationId":12830,"internalLocationCode":"021","agencyLocationId":"LEI","internalLocationType":"CELL","description":"LEI-B-4-021","capacity":2,"parentInternalLocationId":12809,"active":true,"listSequence":21,"cnaNumber":1,"certified":true,"unitType":"NA","operationCapacity":1,"numberOfOccupants":1,"trackingFlag":"N"},"activeFlag":true,"bookingStatus":"O","inOutStatus":"IN","statusReason":"CRT-PR","startDate":"2016-11-26","bookingSequence":1}},{"nomsId":"G7806VO","offenderId":2003241,"firstName":"ONGMETAIN","surname":"ABDORIA","dateOfBirth":"1990-12-06","activeBooking":{"bookingId":754207,"bookingNo":"K09211","offenderId":2003241,"rootOffenderId":2003241,"agencyLocation":{"agencyLocationId":"LEI","description":"LEEDS
        (HMP)","longDescription":"HMP LEEDS","agencyLocationType":"INST","districtCode":"YORK","bailOffice":false,"housingLev1Code":"WING","housingLev2Code":"LAND","housingLev3Code":"CELL","housingLev4Code":"NULL","serviceRequired":false,"active":true,"areaCode":"YORK","nomsRegionCode":"YOHUM","geographicRegionCode":"YORK","cjitCode":"E00LE00"},"livingUnit":{"internalLocationId":13139,"internalLocationCode":"004","agencyLocationId":"LEI","internalLocationType":"CELL","description":"LEI-E-5-004","capacity":2,"parentInternalLocationId":13137,"active":true,"listSequence":4,"cnaNumber":1,"certified":true,"unitType":"NA","operationCapacity":2,"numberOfOccupants":2,"trackingFlag":"N"},"activeFlag":true,"bookingStatus":"O","inOutStatus":"IN","statusReason":"ADM-L","startDate":"2013-06-03","bookingSequence":1}},{"nomsId":"G3462VT","offenderId":2169916,"firstName":"BOPPREOPHE","surname":"ABELIA","dateOfBirth":"1991-09-17","activeBooking":{"bookingId":653225,"bookingNo":"F72726","offenderId":2169916,"rootOffenderId":1931351,"agencyLocation":{"agencyLocationId":"LEI","description":"LEEDS
        (HMP)","longDescription":"HMP LEEDS","agencyLocationType":"INST","districtCode":"YORK","bailOffice":false,"housingLev1Code":"WING","housingLev2Code":"LAND","housingLev3Code":"CELL","housingLev4Code":"NULL","serviceRequired":false,"active":true,"areaCode":"YORK","nomsRegionCode":"YOHUM","geographicRegionCode":"YORK","cjitCode":"E00LE00"},"livingUnit":{"internalLocationId":13228,"internalLocationCode":"019","agencyLocationId":"LEI","internalLocationType":"CELL","description":"LEI-F-4-019","capacity":2,"parentInternalLocationId":13211,"active":true,"listSequence":19,"cnaNumber":1,"certified":true,"unitType":"NA","operationCapacity":2,"numberOfOccupants":2,"trackingFlag":"N"},"activeFlag":true,"bookingStatus":"O","inOutStatus":"IN","statusReason":"CRT-PS","startDate":"2012-08-06","bookingSequence":1}},{"nomsId":"G1670VU","offenderId":1615485,"firstName":"EMANETTA","middleNames":"PATES","surname":"ABOLD","dateOfBirth":"1984-08-22","activeBooking":{"bookingId":1138058,"bookingNo":"W73895","offenderId":1615485,"rootOffenderId":1615485,"agencyLocation":{"agencyLocationId":"LEI","description":"LEEDS
        (HMP)","longDescription":"HMP LEEDS","agencyLocationType":"INST","districtCode":"YORK","bailOffice":false,"housingLev1Code":"WING","housingLev2Code":"LAND","housingLev3Code":"CELL","housingLev4Code":"NULL","serviceRequired":false,"active":true,"areaCode":"YORK","nomsRegionCode":"YOHUM","geographicRegionCode":"YORK","cjitCode":"E00LE00"},"livingUnit":{"internalLocationId":4005,"internalLocationCode":"RECP","agencyLocationId":"LEI","internalLocationType":"AREA","description":"LEI-RECP","capacity":100,"active":true,"listSequence":1,"cnaNumber":0,"certified":false,"unitType":"REC","numberOfOccupants":9,"trackingFlag":"N"},"activeFlag":true,"bookingStatus":"O","inOutStatus":"IN","statusReason":"ADM-INT","startDate":"2016-10-03","bookingSequence":1}},{"nomsId":"G5897GP","offenderId":1472860,"firstName":"CUDMASTARIE","middleNames":"HALLONE","surname":"ABORAH","dateOfBirth":"1989-04-22","activeBooking":{"bookingId":1177785,"bookingNo":"28600A","offenderId":1472860,"rootOffenderId":1472860,"agencyLocation":{"agencyLocationId":"LEI","description":"LEEDS
        (HMP)","longDescription":"HMP LEEDS","agencyLocationType":"INST","districtCode":"YORK","bailOffice":false,"housingLev1Code":"WING","housingLev2Code":"LAND","housingLev3Code":"CELL","housingLev4Code":"NULL","serviceRequired":false,"active":true,"areaCode":"YORK","nomsRegionCode":"YOHUM","geographicRegionCode":"YORK","cjitCode":"E00LE00"},"livingUnit":{"internalLocationId":12643,"internalLocationCode":"025","agencyLocationId":"LEI","internalLocationType":"CELL","description":"LEI-A-2-025","capacity":2,"parentInternalLocationId":12625,"active":true,"listSequence":25,"cnaNumber":1,"certified":true,"unitType":"NA","operationCapacity":2,"numberOfOccupants":2,"trackingFlag":"N"},"activeFlag":true,"bookingStatus":"O","inOutStatus":"IN","statusReason":"ADM-I","startDate":"2017-02-23","bookingSequence":1}},{"nomsId":"G3536UF","offenderId":2341694,"firstName":"OGONANTHOMASIN","middleNames":"SAMOR","surname":"ADREPH","dateOfBirth":"1945-12-03","activeBooking":{"bookingId":982957,"bookingNo":"R17877","offenderId":2341694,"rootOffenderId":2341694,"agencyLocation":{"agencyLocationId":"LEI","description":"LEEDS
        (HMP)","longDescription":"HMP LEEDS","agencyLocationType":"INST","districtCode":"YORK","bailOffice":false,"housingLev1Code":"WING","housingLev2Code":"LAND","housingLev3Code":"CELL","housingLev4Code":"NULL","serviceRequired":false,"active":true,"areaCode":"YORK","nomsRegionCode":"YOHUM","geographicRegionCode":"YORK","cjitCode":"E00LE00"},"livingUnit":{"internalLocationId":13176,"internalLocationCode":"007","agencyLocationId":"LEI","internalLocationType":"CELL","description":"LEI-F-3-007","capacity":2,"parentInternalLocationId":13173,"active":true,"listSequence":7,"cnaNumber":1,"certified":true,"unitType":"NA","operationCapacity":2,"numberOfOccupants":2,"trackingFlag":"N"},"activeFlag":true,"bookingStatus":"O","inOutStatus":"IN","statusReason":"TAP-C5","startDate":"2015-04-30","bookingSequence":1}},{"nomsId":"G6682UO","offenderId":2509663,"firstName":"UDIITENNE","surname":"ADRYANA","dateOfBirth":"1967-08-19","activeBooking":{"bookingId":1134676,"bookingNo":"W66514","offenderId":2509663,"rootOffenderId":2509663,"agencyLocation":{"agencyLocationId":"LEI","description":"LEEDS
        (HMP)","longDescription":"HMP LEEDS","agencyLocationType":"INST","districtCode":"YORK","bailOffice":false,"housingLev1Code":"WING","housingLev2Code":"LAND","housingLev3Code":"CELL","housingLev4Code":"NULL","serviceRequired":false,"active":true,"areaCode":"YORK","nomsRegionCode":"YOHUM","geographicRegionCode":"YORK","cjitCode":"E00LE00"},"livingUnit":{"internalLocationId":8807,"internalLocationCode":"COURT","agencyLocationId":"LEI","internalLocationType":"AREA","description":"LEI-COURT","capacity":100,"active":true,"listSequence":3,"cnaNumber":0,"certified":false,"comments":"udVjswOXqudVjswOXq","unitType":"HOLC","numberOfOccupants":11,"trackingFlag":"N"},"activeFlag":true,"bookingStatus":"O","inOutStatus":"OUT","statusReason":"CRT-PR","startDate":"2016-09-21","bookingSequence":1}},{"nomsId":"G3716UD","offenderId":2525112,"firstName":"ULVAMOSE","middleNames":"KHALIER","surname":"ADUARDO","dateOfBirth":"1986-03-20","activeBooking":{"bookingId":1148752,"bookingNo":"W99581","offenderId":2525112,"rootOffenderId":2525112,"agencyLocation":{"agencyLocationId":"LEI","description":"LEEDS
        (HMP)","longDescription":"HMP LEEDS","agencyLocationType":"INST","districtCode":"YORK","bailOffice":false,"housingLev1Code":"WING","housingLev2Code":"LAND","housingLev3Code":"CELL","housingLev4Code":"NULL","serviceRequired":false,"active":true,"areaCode":"YORK","nomsRegionCode":"YOHUM","geographicRegionCode":"YORK","cjitCode":"E00LE00"},"livingUnit":{"internalLocationId":13256,"internalLocationCode":"001","agencyLocationId":"LEI","internalLocationType":"CELL","description":"LEI-F-5-001","capacity":2,"parentInternalLocationId":13255,"active":true,"listSequence":1,"cnaNumber":1,"certified":true,"unitType":"NA","operationCapacity":1,"numberOfOccupants":1,"trackingFlag":"N"},"activeFlag":true,"bookingStatus":"O","inOutStatus":"IN","statusReason":"ADM-INT","startDate":"2016-11-08","bookingSequence":1}},{"nomsId":"G1350GT","offenderId":1344340,"firstName":"DUPTCELSE","middleNames":"SHEILEED","surname":"AHMONIS","dateOfBirth":"1979-06-03","activeBooking":{"bookingId":944621,"bookingNo":"P25307","offenderId":1344340,"rootOffenderId":1343858,"agencyLocation":{"agencyLocationId":"LEI","description":"LEEDS
        (HMP)","longDescription":"HMP LEEDS","agencyLocationType":"INST","districtCode":"YORK","bailOffice":false,"housingLev1Code":"WING","housingLev2Code":"LAND","housingLev3Code":"CELL","housingLev4Code":"NULL","serviceRequired":false,"active":true,"areaCode":"YORK","nomsRegionCode":"YOHUM","geographicRegionCode":"YORK","cjitCode":"E00LE00"},"livingUnit":{"internalLocationId":12950,"internalLocationCode":"021","agencyLocationId":"LEI","internalLocationType":"CELL","description":"LEI-C-4-021","capacity":2,"parentInternalLocationId":12932,"active":true,"listSequence":21,"cnaNumber":1,"certified":true,"unitType":"NA","operationCapacity":2,"numberOfOccupants":2,"trackingFlag":"N"},"activeFlag":true,"bookingStatus":"O","inOutStatus":"IN","statusReason":"ADM-I","startDate":"2015-01-08","bookingSequence":1}},{"nomsId":"G2911GD","offenderId":1425331,"firstName":"IMANJAH","surname":"AHMONIS","dateOfBirth":"1974-06-05","activeBooking":{"bookingId":1175317,"bookingNo":"26133A","offenderId":1425331,"rootOffenderId":1425331,"agencyLocation":{"agencyLocationId":"LEI","description":"LEEDS
        (HMP)","longDescription":"HMP LEEDS","agencyLocationType":"INST","districtCode":"YORK","bailOffice":false,"housingLev1Code":"WING","housingLev2Code":"LAND","housingLev3Code":"CELL","housingLev4Code":"NULL","serviceRequired":false,"active":true,"areaCode":"YORK","nomsRegionCode":"YOHUM","geographicRegionCode":"YORK","cjitCode":"E00LE00"},"livingUnit":{"internalLocationId":12806,"internalLocationCode":"041","agencyLocationId":"LEI","internalLocationType":"CELL","description":"LEI-B-3-041","capacity":2,"parentInternalLocationId":12766,"active":true,"listSequence":41,"cnaNumber":1,"certified":true,"unitType":"NA","operationCapacity":2,"numberOfOccupants":2,"trackingFlag":"N"},"activeFlag":true,"bookingStatus":"O","inOutStatus":"IN","statusReason":"CRT-CRT","startDate":"2017-02-14","bookingSequence":1}}]},"_links":{"first":{"href":"https://gateway.t3.nomis-api.hmpps.dsd.io/custodyapi/api/offenders/prison/LEI?page=0&size=10&sort=offender.lastName,offender.firstName,asc"},"self":{"href":"https://gateway.t3.nomis-api.hmpps.dsd.io/custodyapi/api/offenders/prison/LEI?page=0&size=10&sort=offender.lastName,offender.firstName,asc"},"next":{"href":"https://gateway.t3.nomis-api.hmpps.dsd.io/custodyapi/api/offenders/prison/LEI?page=1&size=10&sort=offender.lastName,offender.firstName,asc"},"last":{"href":"https://gateway.t3.nomis-api.hmpps.dsd.io/custodyapi/api/offenders/prison/LEI?page=116&size=10&sort=offender.lastName,offender.firstName,asc"}},"page":{"size":10,"totalElements":1167,"totalPages":117,"number":0}}'
    http_version: 
  recorded_at: Wed, 09 Jan 2019 12:00:00 GMT
recorded_with: VCR 4.0.0
